{
  "defaultConnection": "default",
  "connections": {
    "default": {
      "connector": "mongoose",
      "settings": {
        "client": "mongo",
        "database": "${process.env.DATABASE_NAME || 'strapi'}",
        "host": "${process.env.DATABASE_HOST || '127.0.0.1'}",
        "srv": "false",
        "port": "${process.env.DATABASE_PORT || 27017}",
        "username": "${process.env.DATABASE_USERNAME || ''}",
        "password": "${process.env.DATABASE_PASSWORD || ''}"
      },
      "options": {
        "authenticationDatabase": "",
        "ssl": true
      }
    }
  }
}
