{
  "kind": "collectionType",
  "collectionName": "header_navs",
  "info": {
    "name": "headerNav"
  },
  "options": {
    "increments": true,
    "timestamps": true
  },
  "attributes": {
    "name": {
      "type": "string"
    },
    "uid": {
      "type": "uid",
      "targetField": "name"
    },
    "url": {
      "type": "string"
    }
  }
}
