{
  "collectionName": "components_header3_h3",
  "info": {
    "name": "H3",
    "icon": "align-left"
  },
  "options": {},
  "attributes": {
    "title": {
      "type": "string"
    },
    "content": {
      "type": "richtext"
    },
    "image": {
      "collection": "file",
      "via": "related",
      "allowedTypes": [
        "images",
        "files",
        "videos"
      ],
      "plugin": "upload",
      "required": false
    },
    "h4": {
      "type": "component",
      "repeatable": true,
      "component": "header4.h4"
    }
  }
}
